digraph "Synopsis 5" {
node[shape=record, fontsize=10, height=0.2, width=0.4, color=black]
Node0 [shape="record", label="IllegalArgumentException", fontSize = 10, height = 0.2, width = 0.4, URL="GNOME-Speech-IllegalArgumentException.html"];
}
