digraph "Synopsis 10" {
node[shape=record, fontsize=10, height=0.2, width=0.4, color=black]
Node0 [shape="record", label="SecurityException", fontSize = 10, height = 0.2, width = 0.4, URL="GNOME-Speech-SecurityException.html"];
}
