digraph "Bonobo-Listener-inheritance.html" {
node[shape=record, fontsize=10, height=0.2, width=0.4, color=black]
Node0 [shape="record", label="Listener", fontSize = 10, height = 0.2, width = 0.4, color="lightgrey" , style="filled"];
Node1 [shape="record", label="Bonobo::Unknown", fontSize = 10, height = 0.2, width = 0.4, URL="Bonobo-Unknown.html"];
Node1 -> Node0[ color="black", fontsize=10, dir=back, arrowtail=empty, ];
Node2 [shape="record", label="EventListener", fontSize = 10, height = 0.2, width = 0.4, URL="GNOME-Speech-EventListener.html"];
Node0 -> Node2[ color="black", fontsize=10, dir=back, arrowtail=empty, ];
}
