digraph "GNOME-Speech-Recognition-RuleCount-inheritance.html" {
node[shape=record, fontsize=10, height=0.2, width=0.4, color=black]
Node0 [shape="record", label="RuleCount", fontSize = 10, height = 0.2, width = 0.4, color="lightgrey" , style="filled"];
Node1 [shape="record", label="Rule", fontSize = 10, height = 0.2, width = 0.4, URL="GNOME-Speech-Recognition-Rule.html"];
Node2 [shape="record", label="SpeechObject", fontSize = 10, height = 0.2, width = 0.4, URL="GNOME-Speech-SpeechObject.html"];
Node3 [shape="record", label="Bonobo::Unknown", fontSize = 10, height = 0.2, width = 0.4, URL="Bonobo-Unknown.html"];
Node3 -> Node2[ color="black", fontsize=10, dir=back, arrowtail=empty, ];
Node2 -> Node1[ color="black", fontsize=10, dir=back, arrowtail=empty, ];
Node1 -> Node0[ color="black", fontsize=10, dir=back, arrowtail=empty, ];
}
