digraph "GNOME-Speech-EventListener-inheritance.html" {
node[shape=record, fontsize=10, height=0.2, width=0.4, color=black]
Node0 [shape="record", label="EventListener", fontSize = 10, height = 0.2, width = 0.4, color="lightgrey" , style="filled"];
Node1 [shape="record", label="Listener", fontSize = 10, height = 0.2, width = 0.4, URL="Bonobo-Listener.html"];
Node2 [shape="record", label="Bonobo::Unknown", fontSize = 10, height = 0.2, width = 0.4, URL="Bonobo-Unknown.html"];
Node2 -> Node1[ color="black", fontsize=10, dir=back, arrowtail=empty, ];
Node1 -> Node0[ color="black", fontsize=10, dir=back, arrowtail=empty, ];
Node3 [shape="record", label="EngineListener", fontSize = 10, height = 0.2, width = 0.4, URL="GNOME-Speech-EngineListener.html"];
Node0 -> Node3[ color="black", fontsize=10, dir=back, arrowtail=empty, ];
Node4 [shape="record", label="AudioListener", fontSize = 10, height = 0.2, width = 0.4, URL="GNOME-Speech-AudioListener.html"];
Node0 -> Node4[ color="black", fontsize=10, dir=back, arrowtail=empty, ];
}
